<svg xmlns="http://www.w3.org/2000/svg" width="60" height="24" viewBox="0 0 60 24">
    <g fill="#FFF" fill-rule="evenodd">
        <path d="M1.829 23.614H0v.354h10.127v-6.366h-.3s0 3.673-1.228 4.87c-1.038 1.034-2.13 1.115-3.904 1.115V11.862s1.229-.082 1.83.517c.927.925 1.036 2.122 1.036 3.781h.328V7.182h-.328c0 1.66-.081 2.857-1.037 3.782-.6.598-1.829.517-1.829.517V.354c1.775 0 2.62.108 3.658 1.115 1.201 1.197 1.228 4.87 1.228 4.87h.3V0H0v.354h1.829v23.26zM21.62.354v23.26c1.774 0 2.866-.108 3.903-1.115 1.201-1.197 1.229-4.87 1.229-4.87h.3v6.366H16.924v-.353h1.83V.326h-1.83V0h6.36v.354H21.62zM37.889.354v23.26c1.774 0 2.866-.108 3.904-1.115 1.2-1.197 1.228-4.87 1.228-4.87h.3v6.366H33.194v-.353h1.829V.326h-1.83V0h6.361v.354H37.89zM51.702 23.614h-1.83v.354H60v-6.366h-.3s0 3.673-1.229 4.87c-1.037 1.034-2.129 1.115-3.903 1.115V11.862s1.228-.082 1.829.517c.928.925 1.037 2.122 1.037 3.781h.328V7.182h-.328c0 1.66-.082 2.857-1.037 3.782-.6.598-1.83.517-1.83.517V.354c1.775 0 2.621.108 3.659 1.115 1.2 1.197 1.228 4.87 1.228 4.87h.3V0h-9.881v.354h1.829v23.26z"/>
    </g>
</svg>
